<?xml version="1.0" encoding="utf-8"?>
<!-- Generator: Adobe Illustrator 21.0.0, SVG Export Plug-In . SVG Version: 6.00 Build 0)  -->
<svg version="1.1" id="Layer_1" xmlns="http://www.w3.org/2000/svg" xmlns:xlink="http://www.w3.org/1999/xlink" x="0px" y="0px"
	 width="22px" height="22px" viewBox="39 39 22 22" style="enable-background:new 39 39 22 22;" xml:space="preserve">
<style type="text/css">
	.st0{fill:#1EB6B1;}
</style>
<path class="st0" d="M56.67,41.34c0.01-1-0.79-1.82-1.79-1.84h-9.77c-1,0.02-1.8,0.84-1.78,1.83v17.33c-0.01,1,0.79,1.82,1.79,1.84
	h9.77c1-0.02,1.8-0.84,1.78-1.84V41.34z M45.12,40.5h9.75c0.45,0.01,0.81,0.38,0.8,0.83v13.21H44.33V41.33
	C44.32,40.88,44.68,40.51,45.12,40.5z M55.67,58.67c0.01,0.45-0.35,0.82-0.79,0.83h-9.75c-0.45-0.01-0.81-0.38-0.8-0.83v-3.12h11.34
	V58.67C55.67,58.67,55.67,58.67,55.67,58.67z M48.47,42.07c0-0.28,0.22-0.5,0.5-0.5h2.07c0.28,0,0.5,0.22,0.5,0.5s-0.22,0.5-0.5,0.5
	h-2.07C48.69,42.57,48.47,42.34,48.47,42.07z M50.88,57.81c0,0.47-0.38,0.84-0.84,0.84s-0.84-0.38-0.84-0.84s0.38-0.84,0.84-0.84
	S50.88,57.35,50.88,57.81z"/>
</svg>
